Cytogenetic location,Genomic coordinates (From NCBI/GRCh38),Gene/Locus,Gene/Locus name,Gene/Locus MIM number,Comments,Phenotype,Phenotype MIM number,Inheritance,Pheno map key,Mouse Gene (from MGI)
1p36.23,1:7961653-7985281,"DJ1, PARK7",Oncogene DJ-1,602533,,"Parkinson disease 7, autosomal recessive early-onset",606324,Autosomal recessive,3,Park7
1p36.22,1:10210705-10381602,"KIF1B, CMT2A, CMT2A1, NBLST1",Kinesin family member 1B,605995,mutation identified in 1 CMT2A1 family,"?Charcot-Marie-Tooth disease, type 2A1",118210,Autosomal dominant,3,Kif1b
1p36.22,1:11980180-12013514,"MFN2, KIAA0214, CMT2A2A, HMSN6A, CMT2A2B",Mitofusin 2,608507,,Hereditary motor and sensory neuropathy VIA,601152,Autosomal dominant,3,Mfn2
1p36.11,1:26696032-26782109,"ARID1A, C1orf4, B120, SMARCF1, MRD14, CSS2","AT rich interactive domain 1A, SWI-like",603024,,Coffin-Siris syndrome 2,614607,Autosomal dominant,3,Arid1a
1p34.2,1:39841030-39883510,"TRIT1, IPT, COXPD35",tRNA isopentenyltransferase 1,617840,,Combined oxidative phosphorylation deficiency 35,617873,Autosomal recessive,3,Trit1
1p32.3,1:52686341-52698365,"COA7, RESA1, SELRC1, C1orf163",Cytochrome C oxidase assembly factor,615623,mutation identified in 1 COX4D patient,?Mitochondrial complex IV deficiency,220110,Mitochondrial; Autosomal recessive,3,Coa7
1p31.3,1:61077256-61462787,"NFIA, BRMUTD",Nuclear factor I/A,600727,,Brain malformations with or without urinary tract defects,613735,Isolated cases,3,Nfia
1p13.3,1:108134721-108200357,"SLC25A24, SCAMC1","Solute carrier family 25 (mitochondrial carrier, phosphate carrier), member 24",608744,,Fontaine progeroid syndrome,612289,Autosomal dominant,3,Slc25a24
1p13.3,1:108875349-108934334,"GPSM2, LGN, PINS, DFNB82, CMCS",G protein signaling modulator 2,609245,,Chudley-McCullough syndrome,604213,Autosomal recessive,3,Gpsm2
1p13.3,1:109548563-109595842,"GNAI3, ARCND1","Guanine nucleotide-binding protein (G-protein), alpha-inhibiting activity polypeptide-3",139370,,Auriculocondylar syndrome 1,602483,Autosomal dominant,3,Gnai3
1p13.3,1:110060374-110070699,"ALX3, FND1",Aristaless-like homeobox 3,606014,,Frontonasal dysplasia 1,136760,Autosomal recessive,3,Alx3
1p13.2,1:112911846-112956352,"SLC16A1, MCT1, HHF7, MCT1D","Solute carrier family 16 (monocarboxylic acid transporters), member 1",600682,,Erythrocyte lactate transporter defect,245340,Autosomal dominant,3,Slc16a1
1q24.2,1:170662727-170739399,"PRRX1, PMX1, PHOX1, AGOTC",Paired-related homeobox gene 1,167420,,Agnathia-otocephaly complex,202650,Autosomal dominant; Autosomal recessive,3,Prrx1
1q25.1,1:173824646-173858543,"DARS2, ASPRS. LBSL",Aspartyl-tRNA synthetase 2,610956,,Leukoencephalopathy with brain stem and spinal cord involvement and lactate elevation,611105,Autosomal recessive,3,Dars2
1q32.1,1:201359007-201377827,"TNNT2, CMH2, CMD1D, RCM3, LVNC6","Troponin-T2, cardiac",191045,,Left ventricular noncompaction 6,601494,Autosomal dominant,3,Tnnt2
1q32.1,1:206767602-206772493,"IL10, CSIF, GVHDS",Interleukin-10,124092,,"{Rheumatoid arthritis, progression of}",180300,,3,Il10
1q42.3,1:235367359-235448967,"TBCE, KCS, KCS1, HRD, PEAMO",Tubulin-specific chaperone E,604934,,Hypoparathyroidism-retardation-dysmorphism syndrome,241410,Autosomal recessive,3,Tbce
1q44,1:244835305-244845062,"COX20, FAM36A","Cytochrome c oxidase 20, S. cerevisiae, homolog of",614698,,Mitochondrial complex IV deficiency,220110,Mitochondrial; Autosomal recessive,3,Cox20
1q44,1:247416155-247449107,"NLRP3, CIAS1, FCU, FCAS1, NALP3, PYPAF1, DFNA34, KEFH","NLR family, pyrin domain containing 3",606416,,Muckle-Wells syndrome,191900,Autosomal dominant,3,Nlrp3
2p21-p16,2:47403066-47634500,"MSH2, COCA1, FCC1, HNPCC1","mutS, E. coli, homolog of, 2",609309,,Muir-Torre syndrome,158320,Autosomal dominant,3,Msh2
2p16.3,2:47783081-47806953,"MSH6, GTBP, HNPCC5","MutS, E. coli, homolog of, 6",600678,0.5 Mb from MSH2,Mismatch repair cancer syndrome,276300,Autosomal recessive,3,Msh6
2p15,2:63119558-63588798,"WDPCP, C2orf86, BBS15, CHDTHP",WD repeat-containing planar cell polarity effector,613580,mutation identified in 1 BBS15 family and 1 CHDTHP patient,"?Congenital heart defects, hamartomas of tongue, and polysyndactyly",217085,Autosomal recessive,3,Wdpcp
2p13.1,2:73926825-73958960,"DGUOK, DGK, MTDPS3, PEOB4, NCPH","Deoxyguanosine kinase, mitochondrial",601465,,Mitochondrial DNA depletion syndrome 3 (hepatocerebral type),251880,Autosomal recessive,3,Dguok
2p11.2,2:84423522-84459461,"SUCLG1, SUCLA1, MTDPS9","Succinate-CoA ligase, alpha subunit",611224,,Mitochondrial DNA depletion syndrome 9 (encephalomyopathic type with methylmalonic aciduria),245400,Autosomal recessive,3,Suclg1
2p11.2,2:88691657-88750934,"RPIA, RPI, RPIAD",Ribose 5-phosphate isomerase A,180430,mutation identified in 1 RPAID patient,?Ribose 5-phosphate isomerase deficiency,608611,Autosomal recessive,3,Rpia
2p11.2,2:88857360-88857682,"IGKC, IGKCD",Immunoglobulin kappa constant region,147200,,Kappa light chain deficiency,614102,Autosomal recessive,3,
2q22.3,2:144384374-144520390,"ZEB2, ZFHX1B, SMADIP1, SIP1",Zinc finger E box-binding homeobox 2,605802,,Mowat-Wilson syndrome,235730,Autosomal dominant,3,Zeb2
2q24.3,2:165989159-166149215,"SCN1A, GEFSP2, SMEI, FEB3A, EIEE6, FHM3","Sodium channel, voltage-gated, type I, alpha polypeptide",182389,,"Febrile seizures, familial, 3A",604403,Autosomal dominant,3,Scn1a
2q33.1,2:199269499-199471265,"SATB2, KIAA1034, GLSS",Special AT-rich sequence-binding protein 2,608148,,Glass syndrome,612313,Autosomal dominant,3,Satb2
2q33.1,2:201233442-201287710,"CASP8, MCH5, ALPS2B","Caspase 8, apoptosis-related cysteine protease",601763,mutation identified in 1 ALPS2B family,"Hepatocellular carcinoma, somatic",114550,,3,Casp8
2q33.3,2:206765387-206796188,"FASTKD2, KIAA0971",FAST kinase domains 2,612322,mutation identified in 1 family,?Mitochondrial complex IV deficiency,220110,Mitochondrial; Autosomal recessive,3,Fastkd2
2q34,2:208236226-208255142,IDH1,"Isocitrate dehydrogenase, soluble",147700,,"{Glioma, susceptibility to, somatic}",137800,,3,Idh1
2q37.3,2:241734578-241768815,"D2HGDH, D2HGD",D-2-hydroxyglutarate dehydrogenase,609186,,D-2-hydroxyglutaric aciduria,600721,Autosomal recessive,3,D2hgdh
3p25.3,3:9749943-9788245,OGG1,8-hydroxyguanine DNA glycosylase,601982,,"Renal cell carcinoma, clear cell, somatic",144700,,3,Ogg1
3p25.1,3:14651745-14672658,"CCDC174, HSPC212, IHPM",Coiled-coil domain-containing protein 174,616735,,"Hypotonia, infantile, with psychomotor retardation",616816,Autosomal recessive,3,Ccdc174
3p22.2,3:36993349-37050845,"MLH1, COCA2, HNPCC2","mutL, E. coli, homolog of, 1",120436,,Mismatch repair cancer syndrome,276300,Autosomal recessive,3,Mlh1
3p21.31,3:49416777-49422677,"AMT, NKH, GCE",Aminomethyltransferase (glycine cleavage system protein T),238310,,Glycine encephalopathy,605899,Autosomal recessive,3,Amt
3p14.1,3:63864556-64003461,"ATXN7, SCA7, OPCA3",Ataxin 7,607640,,Spinocerebellar ataxia 7,164500,Autosomal dominant,3,Atxn7
3q22.1-q22.2,3:133932695-134030075,"SLCO2A1, OATP2A1, PGT, SLC21A2, PHOAR2","Solute carrier organic anion transporter family, member 2A1",601460,,"Hypertrophic osteoarthropathy, primary, autosomal recessive 2",614441,Autosomal recessive,3,Slco2a1
3q23,3:142449234-142578825,"ATR, FRP1, SCKL1, FCTCS",Ataxia-telangiectasia and Rad3-related (FRAP-related protein-1),601215,mutation identified in 1 FCTCS family,Seckel syndrome 1,210600,Autosomal recessive,3,Atr
3q28-q29,3:192139392-192727598,"FGF12, FHF1, EIEE47",Fibroblast growth factor-12,601513,,"Epileptic encephalopathy, early infantile, 47",617166,Autosomal dominant,3,Fgf12
3q29,3:193593143-193697810,"OPA1, NTG, NPG, BERHS, MTDPS14",Optic atrophy 1 gene,605290,mutation identified in 1 MTDPS14 family,Optic atrophy 1,165500,Autosomal dominant,3,Opa1
3q29,3:196237744-196287751,"PCYT1A, CTPCT, PCYT1, SMDCRD","Phosphate cytidylyltransferase 1, choline, alpha isoform",123695,,Spondylometaphyseal dysplasia with cone-rod dystrophy,608940,Autosomal recessive,3,Pcyt1a
4p16.3,4:499199-540195,"PIGG, GPI7, MRT53",Phosphatidylinositol glycan anchor biosynthesis class G protein,616918,,"Mental retardation, autosomal recessive 53",616917,Autosomal recessive,3,Pigg
4q21.22-q21.23,4:83138563-83285133,"COQ2, COQ10D1, MSA1","CoQ2, S. cerevisiae, homolog of (parahydroxybenzoate-polyprenyltransferase, mitochondrial)",609825,,"{Multiple system atrophy, susceptibility to}",146500,Autosomal dominant; Autosomal recessive,3,Coq2
4q32.1,4:155666709-155737061,"GUCY1A3, GUC1A3, GUCSA3, MYMY6","Guanylate cyclase 1, soluble, alpha 3",139396,,Moyamoya 6 with achalasia,615750,Autosomal recessive,3,Gucy1a1
5q22.2,5:112707504-112846238,"APC, GS, FPC, BTPS2",Adenomatous polyposis coli,611731,150kb distal to MCC,"Gastric cancer, somatic",613659,,3,Apc
5q23.1,5:119452442-119542334,"HSD17B4, PRLTS1",Hydroxysteroid (17-beta) dehydrogenase 4,601860,,D-bifunctional protein deficiency,261515,Autosomal recessive,3,Hsd17b4
5q23.2,5:126776622-126837019,"LMNB1, ADLD",Lamin B1,150340,,"Leukodystrophy, adult-onset, autosomal dominant",169500,Autosomal dominant,3,Lmnb1
5q31.1,5:132294383-132344205,"SLC22A4, OCTN1","Solute carrier family 22 (organic cation transporter), member 4",604190,,"{Rheumatoid arthritis, susceptibility to}",180300,,3,Slc22a4
5q31.2,5:138554881-138575628,"HSPA9, HSPA9B, MOT2, GRP75, EVPLS, SIDBA4",Heat-shock 70kD protein-9 (mortalin),600548,,Even-plus syndrome,616854,Autosomal recessive,3,Hspa9
5q32,5:150053290-150113371,"CSF1R, FMS, HDLS",Colony-stimulating factor-1 receptor; oncogene FMS (McDonough feline sarcoma),164770,FMS2 is 5' end,"Leukoencephalopathy, diffuse hereditary, with spheroids",221820,Autosomal dominant,3,Csf1r
5q32-q33,5:150357638-150400307,"TCOF1, MFD1, TCS1",Treacle,606847,prox. to SPARC,Treacher Collins syndrome 1,154500,Autosomal dominant,3,Tcof1
6p21.33,6:30720200-30725425,"TUBB, TUBB5, M40, CDCBM6, CSCSC1","Tubulin, beta polypeptide",191130,,"Cortical dysplasia, complex, with other brain malformations 6",615771,Autosomal dominant,3,Tubb5
6q15,6:90513572-90587300,"MAP3K7, TAK1, CSCF, FMD2",Mitogen-activated protein kinase kinase kinase 7,602614,,Frontometaphyseal dysplasia 2,617137,Autosomal dominant,3,
6q23.2,6:131808015-131895154,"ENPP1, PDNP1, NPPS, M6S1, PCA1, ARHR2, COLED","Ectonucleotide pyrophosphatase/phosphodiesterase 1 (Ly-41 antigen, mouse, homolog of)",173335,,"Arterial calcification, generalized, of infancy, 1",208000,Autosomal recessive,3,Enpp1
6q25.3,6:156777846-157210778,"ARID1B, BAF250B, KIAA1235, MRD12, CSS1",AT-rich interaction domain-containing protein 1B,614556,,Coffin-Siris syndrome 1,135900,Autosomal dominant,3,Arid1b
6q25.3,6:159679063-159762528,"SOD2, MNSOD, MVCD6","Superoxide dismutase-2, mitochondrial",147460,,{Microvascular complications of diabetes 6},612634,,3,Sod2
7p22.1,7:5970924-6009105,"PMS2, PMSL2, HNPCC4","Postmeiotic segregation increased, S. cerevisiae, 2, homolog of",600259,,"Colorectal cancer, hereditary nonpolyposis, type 4",614337,,3,Pms2
7q34,7:138706293-138799838,"ATP6V0A4, ATP6N1B, VPP2, RTA1C, RTADR","ATPase, H+ transporting, V0 subunit a4",605239,,"Renal tubular acidosis, distal, autosomal recessive",602722,,3,Atp6v0a4
7q36.3,7:155799983-155812272,"SHH, HPE3, HLP3, SMMCI, MCOPCB5",Sonic hedgehog,600725,separate from TPT1,Single median maxillary central incisor,147250,Autosomal dominant,3,Shh
8p11.23,8:37736578-37757800,"ERLIN2, SPFH2, C8orf2, SPG18",Endoplasmic reticulum lipid raft-associated protein 2,611605,,"Spastic paraplegia 18, autosomal recessive",611225,Autosomal recessive,3,Erlin2
8q22.1,8:96142332-96160791,"GDF6, MCOP4, KFS1, MCOPCB6, LCA17, SYNS4",Growth/differentiation factor 6,601147,,Multiple synostoses syndrome 4,617898,Autosomal dominant,3,Gdf6
9p24.1,9:4985085-5128182,"JAK2, THCYT3",Janus kinase 2 (a protein-tyrosine kinase),147796,,"{Budd-Chiari syndrome, somatic}",600880,,3,Jak2
9p24.1,9:6532463-6645691,"GLDC, HYGN1, GCSP, GCE, NKH","Glycine dehydrogenase (decarboxylating; glycine decarboxylase, glycine cleavage system protein P)",238300,,Glycine encephalopathy,605899,Autosomal recessive,3,Gldc
9p21.3,9:21802635-21865970,"MTAP, DMSMFH",Methylthioadenosine phosphorylase,156540,,Diaphyseal medullary stenosis with malignant fibrous histiocytoma,112250,Autosomal dominant,3,Mtap
9q21.2,9:77716273-78031448,"GNAQ, SWS, CMC1","Guanine nucleotide-binding protein (G protein), q",600998,pseudogene on 2q,"Sturge-Weber syndrome, somatic, mosaic",185300,,3,Gnaq
9q22.32,9:95442979-95517056,"PTCH1, NBCCS, BCNS, HPE7","Patched, Drosophila, homolog of",601309,,Basal cell nevus syndrome,109400,Autosomal dominant,3,Ptch1
9q34.2,9:133351804-133356484,"SURF1, CMT4K",Surfeit-1,185620,"distal to ABL, CAN","Leigh syndrome, due to COX IV deficiency",256000,Mitochondrial; Autosomal recessive,3,Surf1
9q34.3,9:136410572-136423760,"PMPCA, KIAA0123, SCAR2","Peptidase, mitochondrial processing, alpha",613036,,"Spinocerebellar ataxia, autosomal recessive 2",213200,Autosomal recessive,3,Pmpca
9q34.3,9:136494432-136545785,"NOTCH1, TAN1, AOS5, AOVD1","Notch, Drosophila, homolog of, 1, translocation-associated",190198,,Aortic valve disease 1,109730,Autosomal dominant,3,Notch1
10q22.1,10:69269990-69401881,"HK1, HKD, HMSNR, RP79",Hexokinase-1,142600,10p11.2 conflicting assignment; ?2 loci on chr.10,Hemolytic anemia due to hexokinase deficiency,235700,Autosomal recessive,3,Hk1
10q24.1,10:95605928-95656900,"ALDH18A1, PYCS, GSAS, ARCL3A, SPG9A, SPG9B, ADCL3","Aldehyde dehydrogenase 18 family, member A1 (1-pyrroline-5-carboxylate synthetase)",138250,GOT1 and GSAS in same pathway,"Spastic paraplegia 9A, autosomal dominant",601162,Autosomal dominant,3,Aldh18a1
10q24.2,10:99782597-99853740,"ABCC2, CMOAT","ATP-binding cassette, subfamily C, member 2 (canalicular multispecific organic anion transporter)",601107,,Dubin-Johnson syndrome,237500,Autosomal recessive,3,Abcc2
11p13,11:34915828-34996127,"PDHX, PDX1, E3BP, PDHXD","Pyruvate dehydrogenase complex, lipoyl-containing component X",608769,,Lacticacidemia due to PDX1 deficiency,245349,Autosomal recessive,3,Pdhx
11p11.2,11:47331405-47352701,"MYBPC3, CMH4, CMD1MM, LVNC10","Myosin-binding protein C, cardiac",600958,,Left ventricular noncompaction 10,615396,Autosomal dominant,3,Mybpc3
11q13.1,11:63974606-63976542,COX8A,"Cytochrome c oxidase, subunit VIIIA",123870,mutation identified in 1 COX4D patient,?Mitochondrial complex IV deficiency,220110,Mitochondrial; Autosomal recessive,3,Cox8a
11q13.1,11:65181214-65212005,"CAPN1, SPG76","Calpain, large polypeptide L1",114220,,"Spastic paraplegia 76, autosomal recessive",616907,Autosomal recessive,3,Capn1
11q13.2,11:68298865-68449274,"LRP5, BMND1, LRP7, LR3, OPPG, VBCH2, OPTA1, EVR4, PCLD4",Low density lipoprotein receptor-related protein-5,603506,,Exudative vitreoretinopathy 4,601813,Autosomal dominant; Autosomal recessive,3,Lrp5
11q23.3,11:119024350-119030905,"SLC37A4, G6PT1","Solute carrier family 37 (glucose-6-phosphate transporter), member 4",602671,,Glycogen storage disease Ib,232220,Autosomal recessive,3,Slc37a4
11q24.1,11:123072005-123195304,"CLMP, ASAM, ACAM, CSBS",Coxsackievirus- and adenovirus receptor-like membrane protein,611693,,Congenital short bowel syndrome,615237,Autosomal recessive,3,Clmp
12p12.2,12:20810703-20916910,"SLCO1B3, OATP8, OATP1B3, SLC21A8, HBLRR","Solute carrier organic anion transporter family, member 1B3",605495,HBLRR digenic with SLCO1B1,"Hyperbilirubinemia, Rotor type, digenic",237450,Digenic recessive,3,Slco1b2
12p11.21,12:32725246-32756457,"YARS2, TYRRS, MLASA2",Tyrosyl-tRNA synthetase 2,610957,,"Myopathy, lactic acidosis, and sideroblastic anemia 2",613561,Autosomal recessive,3,Yars2
12q12,12:45729705-45908039,"ARID2, BAF200, KIAA1557, CSS6",AT-rich interaction domain-containing protein 2,609539,,Coffin-Siris syndrome 6,617808,Autosomal dominant,3,Arid2
12q13.12,12:50111980-50120456,"COX14, C12orf62",Cytochrome c oxidase assembly protein COX14,614478,mutation identified in 1 Cox4 deficient family,?Mitochondrial complex IV deficiency,220110,Mitochondrial; Autosomal recessive,3,Cox14
12q13.13,12:52514574-52520458,"KRT5, DDD1",Keratin 5,148040,,"Epidermolysis bullosa simplex, recessive 1",601001,Autosomal recessive,3,Krt5
12q14.1,12:57762333-57767192,"CYP27B1, VDD1, PDDR","Cytochrome P450, subfamily XXVIIB, polypeptide 1",609506,,"Vitamin D-dependent rickets, type I",264700,Autosomal recessive,3,Cyp27b1
12q24.12,12:111452213-111599675,"ATXN2, ATX2, SCA2, ASL13",Ataxin-2,601517,,"{Amyotrophic lateral sclerosis, susceptibility to, 13}",183090,Autosomal dominant,3,Atxn2
13q12.2,13:27620742-27667421,"POLR1D, RPA16, RPAC2, TCS2","Polymerase I, RNA, subunit D",613715,,Treacher Collins syndrome 2,613717,Autosomal dominant; Autosomal recessive,3,Polr1d
13q13.3,13:37000372-37009613,"EXOSC8, OIP2, RRP43, PCH1C",Exosome component 8,606019,,"Pontocerebellar hypoplasia, type 1C",616081,Autosomal recessive,3,Exosc8
13q31.3-q32.1,13:93226807-94408019,"GPC6, OMIMD1",Glypican 6,604404,,Omodysplasia 1,258315,Autosomal recessive,3,Gpc6
14q24.3,14:73949933-73963459,"COQ6, CGI10, COQ10D6","Coq6, S. cerevisiae, homolog of",614647,,"Coenzyme Q10 deficiency, primary, 6",614650,Autosomal recessive,3,Coq6
14q24.3,14:75081378-75127636,"NEK9, NERCC1, LCCS10, APUG, NC",Never in mitosis gene A-related kinase 9,609798,mutation identified in 1 APUG family,"?Arthrogryposis, Perthes disease, and upward gaze palsy",614262,Autosomal recessive,3,Nek9
14q32.33,14:103562956-103592186,"APOPT1, APOP","Apoptogenic protein 1, mitochondrial",616003,,Mitochondrial complex IV deficiency,220110,Mitochondrial; Autosomal recessive,3,Apopt1
15q21.2,15:50557157-50686814,"TRPM7, LTRPC7, CHAK, ALSPDC","Transient receptor potential cation channel, subfamily M, member 7",605692,,"{Amyotrophic lateral sclerosis-parkinsonism/dementia complex, susceptibility to}",105500,Autosomal dominant,3,Trpm7
15q25.2,15:84641494-84654342,"WDR73, HSPC264, GAMOS1",WD repeat-containing protein 73,616144,,Galloway-Mowat syndrome 1,251300,Autosomal recessive,3,Wdr73
15q26.1,15:88803441-88875353,"ACAN, AGC1, CSPG1, MSK16, SEDK, SSOAOD","Aggrecan (chondroitin sulfate proteoglycan-1, large aggregating proteoglycan, antigen identifies by monoclonal antibody A0122)",155760,mutation identified in 1 SEDK family and 1 SEMDAG family,"?Spondyloepimetaphyseal dysplasia, aggrecan type",612813,Autosomal recessive,3,
15q26.1,15:89316304-89334794,"POLG, POLG1, POLGA, PEO, SANDO, SCAE, MTDPS4A, MTDPS4B, MIRAS","Polymerase (DNA directed), gamma",174763,PEO also digenic with C10orf2,Mitochondrial DNA depletion syndrome 4A (Alpers type),203700,Autosomal recessive,3,Polg
16p13.3,16:2039814-2047871,"NTHL1, OCTS3, FAP3","Endonuclease III, E. coli, homolog of",602656,,Familial adenomatous polyposis 3,616415,Autosomal recessive,3,Nthl1
16p13.3,16:4340248-4351398,"PAM16, MAGMAS, SMDMDM","Presequence translocase-associated motor 16, S. cerevisiae, homolog of",614336,,"Spondylometaphyseal dysplasia, Megarbane-Dagher-Melike type",613320,Autosomal recessive,3,Pam16
16p12.2,16:23522012-23557374,"EARS2, KIAA1970, COXPD12",Glutamyl-tRNA synthetase 2,612799,,Combined oxidative phosphorylation deficiency 12,614924,Autosomal recessive,3,Ears2
16q13,16:57186136-57240474,"RSPRY1, KIAA1972, SEMDFA",RING finger- and SPRY domain-containing protein 11,616585,,"Spondyloepimetaphyseal dysplasia, Faden-Alkuraya type",616723,Autosomal recessive,3,Rspry1
16q23.2,16:81081946-81096374,"GCSH, NKH",Glycine cleavage system H protein,238330,mutation identified in 1 NKH patient,?Glycine encephalopathy,605899,Autosomal recessive,3,Gcsh
16q24.1,16:85899167-85922605,"IRF8, ICSBP1, IMD32A, IMD32B",Interferon regulatory factor 8,601565,,"Immunodeficiency 32B, monocyte and dendritic cell deficiency, autosomal recessive",226990,Autosomal recessive,3,Irf8
16q24.1,16:86567250-86568932,"FOXC2, FKHL14, MFH1",Forkhead box C2,602402,,Lymphedema-distichiasis syndrome with renal disease and diabetes mellitus,153400,Autosomal dominant,3,Foxc2
16q24.3,16:89093808-89160555,ACSF3,Acyl-CoA synthetase family member 3,614245,,Combined malonic and methylmalonic aciduria,614265,,3,Acsf3
16q24.3,16:89508378-89557767,"PGN, SPG7, CMAR, CAR",Paraplegin,602783,,"Spastic paraplegia 7, autosomal recessive",607259,Autosomal dominant; Autosomal recessive,3,Spg7
16q24.3,16:89922008-89936096,"TUBB3, TUBB4, CFEOM3A, CDCBM1","Tubulin, beta-3",602661,,"Cortical dysplasia, complex, with other brain malformations 1",614039,Autosomal dominant,3,Tubb3
17p13.1,17:10672473-10697567,"SCO1, SCOD1",SCO1 cytochrome c oxidase assembly protein,603644,,Mitochondrial complex IV deficiency,220110,Mitochondrial; Autosomal recessive,3,Sco1
17p12,17:14069401-14208678,COX10,"Cytochrome c oxidase, subunit X",602125,,Mitochondrial complex IV deficiency,220110,Mitochondrial; Autosomal recessive,3,Cox10
17q12,17:37686430-37745077,"HNF1B, TCF2, HNF2, MODY5, FJHN, HPC11",HNF1 homeobox B (transcription factor 2),189907,,Renal cysts and diabetes syndrome,137920,Autosomal dominant,3,Hnf1b
17q21.31,17:43044294-43125482,"BRCA1, PSCP, BROVCA1, PNCA4, FANCS",Breast cancer-1 gene,113705,,"{Pancreatic cancer, susceptibility to, 4}",614320,,3,Brca1
17q23.3,17:63600871-63608364,"TACO1, CCDC44",Translational activator of mitochondrially encoded cytochrome c oxidase subunit I,612958,,Mitochondrial complex IV deficiency,220110,Mitochondrial; Autosomal recessive,3,Taco1
17q25.1,17:75272979-75289957,"SLC25A19, DNC, MUP1, MCPHA, THMD3, THMD4","Solute carrier family 25 (mitochondrial deoxynucleotide carrier), member 19",606521,,Thiamine metabolism dysfunction syndrome 4 (progressive polyneuropathy type),613710,Autosomal recessive,3,Slc25a19
18q11.2,18:23506183-23586616,"NPC1, NPC",NPC1 gene,607623,some families not linked to 18; type D prob. allelic,"Niemann-Pick disease, type D",257220,Autosomal recessive,3,Npc1
18q12.1-q12.2,18:34976927-35143469,"MAPRE2, EB2, RP1, CSCSC2","Microtubule-associated protein, RP/EB family, member 2",605789,,"Symmetric circumferential skin creases, congenital, 2",616734,Autosomal dominant,3,
19p13.3,19:1103925-1106788,"GPX4, SMDS",Glutathione peroxidase-4 (phospholipid hydroperoxidase),138322,,"Spondylometaphyseal dysplasia, Sedaghatian type",250220,Autosomal recessive,3,Gpx4
19p13.3,19:1446267-1473243,"APC2, APCL, SOTOS3",APC2 gene,612034,mutation identified in 1 SOTOS3 family,?Sotos syndrome 3,617169,Autosomal recessive,3,Apc2
19p13.3,19:5691833-5720451,"LONP1, PRSS15, LON, CODASS","lon peptidase 1, mitochondrial",605490,,CODAS syndrome,600373,Autosomal recessive,3,Lonp1
19p13.2,19:7534151-7561766,"PNPLA6, NTE, SPG39, NTEMND, BNHS, LNMS, OMCS",Patatin-like phospholipase domain-containing protein 6,603197,mutation identified in 1 LMNS family,Oliver-McFarlane syndrome,275400,Autosomal recessive,3,Pnpla6
19p13.2,19:7629784-7631623,"PET100, C19orf79","PET100, S. cerevisiae, homolog of",614770,,Mitochondrial complex IV deficiency,220110,Mitochondrial; Autosomal recessive,3,Pet100
19p13.13,19:12891128-12915344,GCDH,Glutaryl-Coenzyme A dehydrogenase,608801,,"Glutaricaciduria, type I",231670,Autosomal recessive,3,Gcdh
19p13.12,19:15159632-15200980,"NOTCH3, CADASIL1, CASIL, IMF2, LMNS","Notch, Drosophila, homolog of, 3",600276,mutation identified in 1 IMF2 family,"?Myofibromatosis, infantile 2",615293,Autosomal dominant,3,Notch3
19q13.12,19:35648222-35658783,COX6B1,"Cytochrome c oxidase, subunit VIb polypeptide 1 (ubiquitous)",124089,,Mitochondrial complex IV deficiency,220110,Mitochondrial; Autosomal recessive,3,Cox6b1
20p11.21,20:23627896-23638047,"CST3, ARMD11",Cystatin C,604312,proximal to 20p11.2,"{Macular degeneration, age-related, 11}",611953,,3,Cst3
20q13.32,20:58389118-58451100,"VAPB, VAPC, ALS8",Vesicle-associated membrane protein-associated protein B,605704,,"Spinal muscular atrophy, late-onset, Finkel type",182980,Autosomal dominant,3,Vapb
21q22.11,21:31659621-31668930,"SOD1, ALS1","Superoxide dismutase-1, soluble",147450,mid q22.1,Amyotrophic lateral sclerosis 1,105400,Autosomal dominant; Autosomal recessive,3,Sod1
22q11.21,22:19175574-19178862,"SLC25A1, SLC20A3, CTP, D2L2AD","Solute carrier family 25 (mitochondrial citrate transporter), member 1",190315,,Combined D-2- and L-2-hydroxyglutaric aciduria,615182,Autosomal recessive,3,
22q11.23,22:23765833-23767971,"CHCHD10, FTDALS2, SMAJ, IMMD",Coiled-coil-helix-coiled-coil-helix domain-containing protein 10,615903,mutation identified in 1 IMMD family,"Spinal muscular atrophy, Jokela type",615048,Autosomal dominant,3,Chchd10
22q12.2,22:29480191-29491289,"NEFH, CMT2CC","Neurofilament, heavy polypeptide",162230,mutation identified in 1 family with ALS susceptibility,"Charcot-Marie-Tooth disease, axonal, type 2CC",616924,Autosomal dominant,3,Nefh
22q13.1,22:37972311-37984531,"SOX10, WS4, WS4C, PCWH",SRY (sex-determining region Y)-box-10,602229,megacolon and spotting in mice,"Waardenburg syndrome, type 4C",613266,Autosomal dominant,3,Sox10
